Change Component Designator: OldDesignator=ANALOG NewDesignator=AD_L
Change Component Designator: OldDesignator=PWM NewDesignator=PWM_L
Change component parameters. Clean all parameters for all variants
Change component parameters (AddParameter): Name = "Supplier 1"; Value = "Arrow"; VariantName = "[No Variations]"
Change component parameters (AddParameter): Name = "Supplier 2"; Value = "Digi-Key"; VariantName = "[No Variations]"
Change component parameters (AddParameter): Name = "Supplier 3"; Value = "Newark"; VariantName = "[No Variations]"
Change component parameters (AddParameter): Name = "Supplier 4"; Value = "Arrow"; VariantName = "[No Variations]"
Added Component: Designator=J1(MICRO-FIT 3.0 SERIES 1x2 TH)
Add component. Clean all parameters for all variants
Add component (AddParameter): Name = "Datasheet"; Value = "http://www.molex.com/pdm_docs/sd/430450200_sd.pdf"; VariantName = "[No Variations]"
Add component (AddParameter): Name = "Digikey"; Value = "http://www.digikey.com/product-detail/en/molex-llc/0430450200/WM1813-ND/252526"; VariantName = "[No Variations]"
Add component (AddParameter): Name = "Supplier 1"; Value = "Digi-Key"; VariantName = "[No Variations]"
Add component (AddParameter): Name = "Supplier Part Number 1"; Value = "WM1813-ND"; VariantName = "[No Variations]"
Added Component: Designator=J2(15-91-3023)
Add component. Clean all parameters for all variants
Added Component: Designator=J3(15-91-3023)
Add component. Clean all parameters for all variants
Added Component: Designator=J4(15-91-3023)
Add component. Clean all parameters for all variants
Added Component: Designator=J5(15-91-3023)
Add component. Clean all parameters for all variants
Added Component: Designator=R1(CR2012-0805)
Add component. Clean all parameters for all variants
Add component (AddParameter): Name = "LatestRevisionDate"; Value = "17-Jul-2002"; VariantName = "[No Variations]"
Add component (AddParameter): Name = "LatestRevisionNote"; Value = "Re-released for DXP Platform."; VariantName = "[No Variations]"
Add component (AddParameter): Name = "Published"; Value = "8-Jun-2000"; VariantName = "[No Variations]"
Add component (AddParameter): Name = "Publisher"; Value = "Altium Limited"; VariantName = "[No Variations]"
Add component (AddParameter): Name = "Value"; Value = "10K"; VariantName = "[No Variations]"
Added Component: Designator=R2(CR2012-0805)
Add component. Clean all parameters for all variants
Add component (AddParameter): Name = "LatestRevisionDate"; Value = "17-Jul-2002"; VariantName = "[No Variations]"
Add component (AddParameter): Name = "LatestRevisionNote"; Value = "Re-released for DXP Platform."; VariantName = "[No Variations]"
Add component (AddParameter): Name = "Published"; Value = "8-Jun-2000"; VariantName = "[No Variations]"
Add component (AddParameter): Name = "Publisher"; Value = "Altium Limited"; VariantName = "[No Variations]"
Add component (AddParameter): Name = "Value"; Value = "10K"; VariantName = "[No Variations]"
Added Component: Designator=R3(CR2012-0805)
Add component. Clean all parameters for all variants
Add component (AddParameter): Name = "LatestRevisionDate"; Value = "17-Jul-2002"; VariantName = "[No Variations]"
Add component (AddParameter): Name = "LatestRevisionNote"; Value = "Re-released for DXP Platform."; VariantName = "[No Variations]"
Add component (AddParameter): Name = "Published"; Value = "8-Jun-2000"; VariantName = "[No Variations]"
Add component (AddParameter): Name = "Publisher"; Value = "Altium Limited"; VariantName = "[No Variations]"
Add component (AddParameter): Name = "Value"; Value = "10K"; VariantName = "[No Variations]"
Added Component: Designator=R4(CR2012-0805)
Add component. Clean all parameters for all variants
Add component (AddParameter): Name = "LatestRevisionDate"; Value = "17-Jul-2002"; VariantName = "[No Variations]"
Add component (AddParameter): Name = "LatestRevisionNote"; Value = "Re-released for DXP Platform."; VariantName = "[No Variations]"
Add component (AddParameter): Name = "Published"; Value = "8-Jun-2000"; VariantName = "[No Variations]"
Add component (AddParameter): Name = "Publisher"; Value = "Altium Limited"; VariantName = "[No Variations]"
Add component (AddParameter): Name = "Value"; Value = "10K"; VariantName = "[No Variations]"
Added Component: Designator=TB1(Solder Bridge 3P Preselected)
Add component. Clean all parameters for all variants
Added Component: Designator=TB2(Solder Bridge 3P Preselected)
Add component. Clean all parameters for all variants
Added Pin To Net: NetName=IO22 Pin=J2-1
Added Pin To Net: NetName=GND Pin=J2-2
Added Pin To Net: NetName=IO23 Pin=J3-1
Added Pin To Net: NetName=GND Pin=J3-2
Added Pin To Net: NetName=IO24 Pin=J4-1
Added Pin To Net: NetName=GND Pin=J4-2
Added Pin To Net: NetName=IO22 Pin=J5-1
Added Pin To Net: NetName=GND Pin=J5-2
Added Pin To Net: NetName=IO22 Pin=R1-1
Added Pin To Net: NetName=3V3 Pin=R1-2
Added Pin To Net: NetName=IO23 Pin=R2-1
Added Pin To Net: NetName=3V3 Pin=R2-2
Added Pin To Net: NetName=IO24 Pin=R3-1
Added Pin To Net: NetName=3V3 Pin=R3-2
Added Pin To Net: NetName=IO22 Pin=R4-1
Added Pin To Net: NetName=3V3 Pin=R4-2
Added Pin To Net: NetName=AD15 Pin=TB1-1
Added Pin To Net: NetName=AD15 Pin=TB1-1
Added Pin To Net: NetName=AD14 Pin=TB1-3
Added Pin To Net: NetName=AD14 Pin=TB1-3
Added Pin To Net: NetName=AD14 Pin=TB2-1
Added Pin To Net: NetName=AD14 Pin=TB2-1
Added Pin To Net: NetName=AD15 Pin=TB2-3
Added Pin To Net: NetName=AD15 Pin=TB2-3
Change Net Name : Old Net Name=3V3 New Net Name=3.3V
Change Net Name : Old Net Name=AD14 New Net Name=CAN_RX
Change Net Name : Old Net Name=AD15 New Net Name=CAN_TX
Added Pin To Net: NetName=NetJ1_1 Pin=J1-1
Added Pin To Net: NetName=NetJ1_1 Pin=TB2-2
Added Net: Name=NetJ1_1
Added Pin To Net: NetName=NetJ1_2 Pin=J1-2
Added Pin To Net: NetName=NetJ1_2 Pin=TB1-2
Added Net: Name=NetJ1_2
Change Class Name : Old Net Name=AdruinoMegaSheild New Net Name=UdooBoard
Added Member To Class: ClassName=UdooBoard Member=Component J1 CAN
Added Member To Class: ClassName=UdooBoard Member=Component J2 Generic 1
Added Member To Class: ClassName=UdooBoard Member=Component J3 Generic 2
Added Member To Class: ClassName=UdooBoard Member=Component J4 Generic 1
Added Member To Class: ClassName=UdooBoard Member=Component J5 Generic 1
Added Member To Class: ClassName=UdooBoard Member=Component R1 R 0805
Added Member To Class: ClassName=UdooBoard Member=Component R2 R 0805
Added Member To Class: ClassName=UdooBoard Member=Component R3 R 0805
Added Member To Class: ClassName=UdooBoard Member=Component R4 R 0805
Added Member To Class: ClassName=UdooBoard Member=Component TB1 3P Preselected Solder Bridge
Added Member To Class: ClassName=UdooBoard Member=Component TB2 3P Preselected Solder Bridge
Added Room: Name=UdooBoard
