Added Component: Designator=J8(Header 1x2)
Added Component: Designator=POWER(Header 6x1 8.5mm)
Added Pin To Net: NetName=VIN Pin=POWER-1
Added Pin To Net: NetName=GND Pin=POWER-2
Added Pin To Net: NetName=GND Pin=POWER-3
Added Pin To Net: NetName=5V Pin=POWER-4
Added Pin To Net: NetName=3.3V Pin=POWER-5
Added Pin To Net: NetName=RESET Pin=POWER-6
Added Member To Class: ClassName=UdooBoard Member=Component J8 Header 1x2
Added Member To Class: ClassName=UdooBoard Member=Component POWER
Added Room: Name=UdooBoard
