Removed Pin From Net: NetName=GENERIC_OUT 1 Pin=J6-1
Removed Pin From Net: NetName=GENERIC_OUT 2 Pin=J6-2
Removed Pin From Net: NetName=GENERIC_OUT 3 Pin=J6-3
Removed Pin From Net: NetName=GENERIC_OUT 4 Pin=J6-4
Removed Pin From Net: NetName=GENERIC_OUT 5 Pin=J6-5
Removed Pin From Net: NetName=GENERIC_OUT 6 Pin=J6-6
Removed Pin From Net: NetName=GENERIC_OUT 7 Pin=J6-7
Removed Pin From Net: NetName=GENERIC_OUT 8 Pin=J6-8
Change Component Comment : Designator=C1 Old Comment=C 0805 New Comment=
Change Component Comment : Designator=R1 Old Comment=R 0805 New Comment=
Change Component Comment : Designator=R2 Old Comment=R 0805 New Comment=
Change Component Comment : Designator=R3 Old Comment=R 0805 New Comment=
Change Component Comment : Designator=R4 Old Comment=R 0805 New Comment=
Change Component Comment : Designator=R5 Old Comment=R 0805 New Comment=
Change Component Comment : Designator=R6 Old Comment=R 0805 New Comment=
Change Component Comment : Designator=R7 Old Comment=R 0805 New Comment=
Added Component: Designator=J6(Micro-fit 3.0 SERIES 2x4 thruhole)
Add component. Clean all parameters for all variants
Add component (AddParameter): Name = "ComponentLink1Description"; Value = "Datasheet"; VariantName = "[No Variations]"
Add component (AddParameter): Name = "ComponentLink1URL"; Value = "http://www.molex.com/pdm_docs/sd/430450800_sd.pdf"; VariantName = "[No Variations]"
Add component (AddParameter): Name = "ComponentLink2Description"; Value = "Mechanical Drawing"; VariantName = "[No Variations]"
Add component (AddParameter): Name = "ComponentLink2URL"; Value = "http://www.molex.com/pdm_docs/sd/430450800_sd.pdf"; VariantName = "[No Variations]"
Add component (AddParameter): Name = "Drawing Date"; Value = "Jan. 2, 2011"; VariantName = "[No Variations]"
Add component (AddParameter): Name = "Drawn By"; Value = "Aaron Mills"; VariantName = "[No Variations]"
Add component (AddParameter): Name = "Manufacturer"; Value = "Molex"; VariantName = "[No Variations]"
Add component (AddParameter): Name = "Supplier 1"; Value = "http://search.digikey.com/scripts/DkSearch/dksus.dll?Detail&name=WM1816-ND"; VariantName = "[No Variations]"
Added Pin To Net: NetName=GENERIC_OUT 1 Pin=J6-1
Added Pin To Net: NetName=GENERIC_OUT 2 Pin=J6-2
Added Pin To Net: NetName=GENERIC_OUT 3 Pin=J6-3
Added Pin To Net: NetName=GENERIC_OUT 4 Pin=J6-4
Added Pin To Net: NetName=GENERIC_OUT 5 Pin=J6-5
Added Pin To Net: NetName=GENERIC_OUT 6 Pin=J6-6
Added Pin To Net: NetName=GENERIC_OUT 7 Pin=J6-7
Added Pin To Net: NetName=GENERIC_OUT 8 Pin=J6-8
Added Member To Class: ClassName=UdooBoard Member=Component J6 Micro-fit 3.0 series 2x4
Added Room: Name=UdooBoard
